<?xml version="1.0" encoding="utf-8"?>
<!-- Generator: Adobe Illustrator 19.2.1, SVG Export Plug-In . SVG Version: 6.00 Build 0)  -->
<svg version="1.1" id="Layer_1" xmlns="http://www.w3.org/2000/svg" xmlns:xlink="http://www.w3.org/1999/xlink" x="0px" y="0px"
	 viewBox="0 0 139 144" style="enable-background:new 0 0 139 144;" xml:space="preserve">
<style type="text/css">
	.st0{fill:#532583;}
	.st1{fill:#FFFFFF;}
</style>
<ellipse id="Oval" class="st0" cx="69.3" cy="71.7" rx="69.1" ry="71.5"/>
<path id="Shape" class="st1" d="M69.3,32c-22.4,0-40.4,16.8-40.4,37.5c0,7.6,2.4,14.8,6.7,20.7c-0.6,6.8-2.2,16.5-6.7,21.2
	c0,0,13.8-2,23.2-7.9l0,0c3.9-2.6,7.7-5.3,8.5-5.9c0.4-0.6,1.2-0.8,1.9-0.4c0.4,0.2,0.6,0.7,0.7,1.2c0,0.9,0,1.1-7.8,6.4
	c4.3,1.5,9,2.3,13.9,2.3c22.4,0,40.4-16.8,40.4-37.5S91.6,32,69.3,32L69.3,32z"/>
<ellipse id="Oval_1_" class="st0" cx="70.8" cy="71.7" rx="3.5" ry="3.6"/>
<ellipse id="Oval_2_" class="st0" cx="85" cy="71.7" rx="3.5" ry="3.6"/>
<ellipse id="Oval_3_" class="st0" cx="56.6" cy="71.7" rx="3.5" ry="3.6"/>
</svg>
